map with Multiple Input Objects
…
An important observation on how the iteration works. For example.

if .x = c(“Americas”, “Asia”) is my continent vector and, .y = c(1952, 2007) is my year vector; the iteration is not going to over all of the combinations possible with .x and .y. Meaning, it is not going to start pairing something like (Americas, 1952) and then (Americas, 2007), and then (Asia, 1952) and then (Asia, 2007).

The correct iteration will be first (America, 1952) then (Asia, 2007) only.

It goes over the list row by corresponding row, it seems.

In this case we will get our two element from the gapminder data set identified. One for the year and one for the continent.

gap_mod <- read_rds(here::here("data", "gap_mod.rds"))

continent_year <- gap_mod %>% distinct(continent, year)
continent_year
#> # A tibble: 60 x 2
#>    continent  year
#>    <fct>     <dbl>
#>  1 Asia       1952
#>  2 Asia       1957
#>  3 Asia       1962
#>  4 Asia       1967
#>  5 Asia       1972
#>  6 Asia       1977
#>  7 Asia       1982
#>  8 Asia       1987
#>  9 Asia       1992
#> 10 Asia       1997
#> # ... with 50 more rows
…
In the previous result the first is the variable we grouped by, continent, and the second column is the rest of the data fram corresponding to that group.

We can see the fifth entry displayed in detail here (Ocenia):

gap_nest$data[[5]]
#> # A tibble: 24 x 5
#>    country    year      pop lifeExp gdpPercap
#>    <chr>     <dbl>    <dbl>   <dbl>     <dbl>
#>  1 Australia  1952  8691212    69.1    10040.
#>  2 Australia  1957  9712569    70.3    10950.
#>  3 Australia  1962 10794968    70.9    12217.
#>  4 Australia  1967 11872264    71.1    14526.
#>  5 Australia  1972 13177000    71.9    16789.
#>  6 Australia  1977 14074100    73.5    18334.
#>  7 Australia  1982 15184200    74.7    19477.
#>  8 Australia  1987 16257249    76.3    21889.
#>  9 Australia  1992 17481977    77.6    23425.
#> 10 Australia  1997 18565243    78.8    26998.
#> # ... with 14 more rows

The same can be achieved using purrr’s pluck() function.

# extract the fifth entry of the data column in gap_nest
gap_nest %>% 
  pluck("data", 5)
#> # A tibble: 24 x 5
#>    country    year      pop lifeExp gdpPercap
#>    <chr>     <dbl>    <dbl>   <dbl>     <dbl>
#>  1 Australia  1952  8691212    69.1    10040.
#>  2 Australia  1957  9712569    70.3    10950.
#>  3 Australia  1962 10794968    70.9    12217.
#>  4 Australia  1967 11872264    71.1    14526.
#>  5 Australia  1972 13177000    71.9    16789.
#>  6 Australia  1977 14074100    73.5    18334.
#>  7 Australia  1982 15184200    74.7    19477.
#>  8 Australia  1987 16257249    76.3    21889.
#>  9 Australia  1992 17481977    77.6    23425.
#> 10 Australia  1997 18565243    78.8    26998.
#> # ... with 14 more rows
…
The code will not extract the lifeExp column for each data frame. Applying mutate to a data collumn will result in such errors since the data column in gap_nest is a list of data frames. The way to access data in list columns is via map().

We will try doing the mean lifeExp of a single continent and then we will expand it to the rest.

.x will be an individual nested data frame of gap_nest, say the first one, “Asia.” The following code defines it.

# the first entry of the nested column "data" in gap_nest, which is Asia
.x <- gap_nest %>% 
  pluck("data", 1)

.x
#> # A tibble: 396 x 5
#>    country      year      pop lifeExp gdpPercap
#>    <chr>       <dbl>    <dbl>   <dbl>     <dbl>
#>  1 Afghanistan  1952  8425333    28.8      779.
#>  2 Afghanistan  1957  9240934    30.3      821.
#>  3 Afghanistan  1962 10267083    32.0      853.
#>  4 Afghanistan  1967 11537966    34.0      836.
#>  5 Afghanistan  1972 13079460    36.1      740.
#>  6 Afghanistan  1977 14880372    38.4      786.
#>  7 Afghanistan  1982 12881816    39.9      978.
#>  8 Afghanistan  1987 13867957    40.8      852.
#>  9 Afghanistan  1992 16317921    41.7      649.
#> 10 Afghanistan  1997 22227415    41.8      635.
#> # ... with 386 more rows
…
Building a simple linear model we will see how lifeExp can be modeled by population and gdpPercap.

First, we will fit a linear model for each continent and save its result as a nested column.

Starting from a basic unit of one continent as .x, again I will choose “Asia”, the linear model function will be..

lm(lifeExp ~ pop + gdpPercap + year, data = .x)

or simply lm(lifeExp ~ ., data = .x)

Testing.

lm(lifeExp ~ ., data = .x) %>% broom::tidy()
#> # A tibble: 36 x 5
#>    term                   estimate std.error statistic   p.value
#>    <chr>                     <dbl>     <dbl>     <dbl>     <dbl>
#>  1 (Intercept)              -842.      20.1     -42.0  1.08e-140
#>  2 countryBahrain             28.2      1.32     21.3  7.91e- 66
#>  3 countryBangladesh          11.9      1.29      9.22 2.52e- 18
#>  4 countryCambodia            10.5      1.27      8.23 3.35e- 15
#>  5 countryChina               18.2      2.85      6.40 4.96e- 10
#>  6 countryHong Kong China     36.1      1.31     27.5  2.13e- 90
#>  7 countryIndia               11.3      2.25      5.01 8.52e-  7
#>  8 countryIndonesia           16.0      1.32     12.1  1.48e- 28
#>  9 countryIran                21.0      1.28     16.4  1.82e- 45
#> 10 countryIraq                19.1      1.28     14.9  1.36e- 39
#> # ... with 26 more rows
…
